{
  "NAME": true,
  "SYNOPSIS": true,
  "DESCRIPTION": true,
  "POSITIONAL-ARGUMENTS": true,
  "GCLOUD-WIDE-FLAGS": true,
  "API-REFERENCE": true,
  "NOTES": true,
  "EXAMPLES": true,
  "Uninstalling-Google-Cloud-SDK": true,
  "Choosing-a-Python-Interpreter": true,
  "Configuring-the-Python-Interpreter": true,
  "Setting-Configurations-and-Properties": true,
  "Projections": true,
  "Transforms": true,
  "Generating-offline-HTML-documents": true,
  "Generating-offline-manpage-documents": true,
  "SYNTAX": true,
  "ADVANCED-TOPICS": true,
  "Formats": true,
  "Filter-Expressions": true,
  "Absolute-date": true,
  "Relative-duration-date": true,
  "Absolute-duration-formats": true,
  "Creating-configurations": true,
  "Using-configurations": true,
  "AVAILABLE-PROPERTIES": true,
  "Command-Hierarchy": true,
  "Command-Line": true,
  "Command-Usage-Notation": true,
  "Positional-Arguments": true,
  "Flag-Arguments": true,
  "Boolean-Flags": true,
  "Valued-Flags": true,
  "Complex-Flag-Values": true,
  "Output": true,
  "Exit-Status": true,
  "CLI-Tree-Data-Files": true,
  "The-gcloud-CLI-Tree": true,
  "Other-CLI-Trees": true,
  "CLI-Tree-Schema": true,
  "TOPICS": true,
  "FLAGS": true,
  "REQUIRED-FLAGS": true,
  "LIST-COMMAND-FLAGS": true,
  "OPTIONAL-FLAGS": true,
  "SEE-ALSO": true,
  "COMMONLY-USED-FLAGS": true,
  "OTHER-FLAGS": true,
  "Getting-started": true,
  "Help": true,
  "Personalization": true,
  "Credentials": true,
  "Projects": true,
  "Identity": true,
  "Docker": true,
  "Virtual-Machines": true,
  "Serverless": true,
  "Miscellaneous": true
}